<?xml version="1.0" encoding="UTF-8" standalone="no"?>
<svg
   width="200"
   height="200"
   viewBox="0 0 100 100"
   version="1.1"
   id="svg6"
   sodipodi:docname="logo.svg"
   inkscape:version="1.2.1 (9c6d41e410, 2022-07-14)"
   inkscape:export-filename="/home/doomsdayrs/Downloads/shosetsu-logo.png"
   inkscape:export-xdpi="122.88"
   inkscape:export-ydpi="122.88"
   xml:space="preserve"
   xmlns:inkscape="http://www.inkscape.org/namespaces/inkscape"
   xmlns:sodipodi="http://sodipodi.sourceforge.net/DTD/sodipodi-0.dtd"
   xmlns="http://www.w3.org/2000/svg"
   xmlns:svg="http://www.w3.org/2000/svg"><defs
     id="defs10" /><sodipodi:namedview
     id="namedview8"
     pagecolor="#505050"
     bordercolor="#eeeeee"
     borderopacity="1"
     inkscape:pageshadow="0"
     inkscape:pageopacity="0"
     inkscape:pagecheckerboard="0"
     showgrid="false"
     inkscape:zoom="2.9380287"
     inkscape:cx="66.711397"
     inkscape:cy="93.600175"
     inkscape:window-width="1920"
     inkscape:window-height="1011"
     inkscape:window-x="0"
     inkscape:window-y="0"
     inkscape:window-maximized="1"
     inkscape:current-layer="svg6"
     inkscape:snap-global="true"
     inkscape:snap-bbox="true"
     inkscape:bbox-paths="true"
     inkscape:bbox-nodes="true"
     inkscape:showpageshadow="0"
     inkscape:deskcolor="#505050" /><rect
     style="fill:#a80000;fill-opacity:1;stroke:none;stroke-width:0.486224"
     id="rect952"
     width="100"
     height="100"
     x="0"
     y="0"
     inkscape:label="background" /><path
     fill="#ffffff"
     d="M 75,33.910891 C 72.624435,31.875687 67.929864,28.685369 64.366515,26.485148 l -2.488687,2.69527 c 3.619909,2.310231 8.257919,5.665566 10.520362,7.810781 z M 49.321267,38.366337 H 62.386878 V 49.092409 H 49.321267 Z m 17.19457,10.726072 V 34.405941 H 49.321267 V 25 h -4.185521 v 9.405941 H 28.733031 v 3.960396 H 45.135746 V 49.092409 H 25 v 3.90539 H 45.135746 V 75 h 4.185521 V 52.997799 h 20.87104 c -0.678733,7.975798 -1.470588,11.441145 -2.545248,12.376238 -0.622173,0.49505 -1.244344,0.550055 -2.375565,0.550055 -1.357467,0 -4.920815,0 -8.484163,-0.330033 0.735294,1.10011 1.300905,2.69527 1.357465,3.905391 3.506788,0.165016 6.900453,0.220022 8.597286,0.110011 1.923077,-0.110011 3.223982,-0.49505 4.411764,-1.650166 1.640272,-1.650164 2.488688,-5.995599 3.337104,-16.941694 0.113122,-0.60506 0.169684,-1.925192 0.169684,-1.925192 z"
     stroke-width="4.18335"
     id="path4"
     inkscape:label="word" /><path
     d="m 45.4055,65.8905 v -2.937 h -3.105 C 42.0725,61.593 41.54,60.336 40.772,59.256 l 2.1945,-2.1945 -2.121,-2.121 -2.1945,2.1945 c -1.08,-0.7695 -2.3355,-1.3005 -3.6975,-1.5315 V 52.5 h -3 v 3.1035 c -1.362,0.2295 -2.6175,0.762 -3.6975,1.5315 l -2.1945,-2.1945 -2.0775,2.076 2.1885,2.1885 c -0.7875,1.092 -1.3365,2.364 -1.569,3.7485 H 21.5 v 2.937 h 3.0945 c 0.222,1.386 0.759,2.6625 1.539,3.7605 l -2.1945,2.1945 2.121,2.121 2.1945,-2.1945 c 1.08,0.7695 2.3355,1.3005 3.6975,1.5315 v 3.1035 h 3 v -3.1035 c 1.383,-0.234 2.6565,-0.78 3.7485,-1.569 l 2.187,2.187 2.0775,-2.076 -2.1945,-2.1945 c 0.7785,-1.0965 1.317,-2.3745 1.539,-3.7605 z M 33.4835,69.03 c -2.553,0 -4.6245,-2.0715 -4.6245,-4.6245 0,-2.553 2.0715,-4.6245 4.6245,-4.6245 2.553,0 4.6245,2.0715 4.6245,4.6245 0,2.553 -2.0715,4.6245 -4.6245,4.6245 z"
     fill="#434343"
     class="si-glyph-fill"
     id="path1123"
     style="fill:#ffffff;fill-opacity:1;fill-rule:evenodd;stroke:none;stroke-width:1.5" /></svg>
